{
  "$schema": "http://json-schema.org/draft-04/schema#",
  "type": "array",
  "items": {
    "type": "object",
    "properties": {
      "id": {
        "type": "string"
      },
      "description": {
        "type": "string"
      },
      "name": {
        "type": "string"
      },
      "thumbnail": {
        "type": "string"
      },
      "price": {
        "type": "integer"
      }
    },
    "required": [
      "id",
      "description",
      "name",
      "thumbnail",
      "price"
    ]
  }
}