{
    "inputMessageMetadata": {
        "messagePayload": {
            "connectorName": "#_custom_mule_metadata_type_#",
            "typeId": "products_json"
        }
    },
    "outputMessageMetadata": {},
    "id": "413064f5-aa30-49a4-b6f3-d23aea881c4b",
    "version": "5.2.0.0"
}